Project 2
…
Find the most popular brand

This data has proven difficult to work with because it wont combine all the same brands.

ramen %>% select(Brand,Stars) %>% group_by(Brand) %>% filter(Stars == 5) %>% count(Brand)

## # A tibble: 106 x 2
## # Groups:   Brand [106]
##    Brand                n
##    <chr>            <int>
##  1 A-Sha Dry Noodle     6
##  2 ABC                  1
##  3 Acecook              1
##  4 Ah Lai               1
##  5 Amianda              1
##  6 Annie Chun's         1
##  7 Asian Thai Foods     1
##  8 CarJEN               6
##  9 Chering Chang        3
## 10 ChoripDong           1
## # ... with 96 more rows
…
Now that the table is separated, I will group by the release year and find the maximum rating for each.

tv %>% select(show_title, imdb_rating,release) %>% group_by(release) %>% slice(which.max(imdb_rating))

## Warning in which.max(imdb_rating): NAs introduced by coercion

## # A tibble: 72 x 3
## # Groups:   release [72]
##    show_title                                 imdb_rating release
##    <chr>                                      <chr>       <chr>  
##  1 Superman                                   7           1948   
##  2 The Lone Ranger                            7.7         1949   
##  3 Dick Tracy                                 7.6         1950   
##  4 Adventures of Superman                     7.7         1952   
##  5 Commando Cody: Sky Marshal of the Universe 6           1953   
##  6 Captain Midnight                           8           1954   
##  7 Sheena: Queen of the Jungle                6.9         1955   
##  8 Zorro                                      8.2         1957   
##  9 The Invisible Man                          7.3         1958   
## 10 Quick Draw McGraw                          6.8         1959   
## # ... with 62 more rows
…
